fontType 36864
maxWidth 17
kernMax -1
nDescent 0
fRectWidth 17
fRectHeight 11
ascent 9
descent 2
leading 0

GLYPH 9
OFFSET 1
--
--
--
--
--
--
--
--
--
--
--

GLYPH 32
OFFSET 1
--
--
--
--
--
--
--
--
--
--
--

GLYPH '!'
OFFSET 1
---
---
##-
##-
##-
##-
##-
---
##-
---
---

GLYPH '"'
OFFSET 1
------
##-##-
##-##-
-#--#-
------
------
------
------
------
------
------

GLYPH '#'
OFFSET 1
----------
----------
---##-##--
---##-##--
-########-
--##-##---
########--
-##-##----
-##-##----
----------
----------

GLYPH '$'
OFFSET 1
------
--#---
-####-
#-#---
###---
-###--
--###-
--#-#-
####--
--#---
------

GLYPH '%'
OFFSET 1
-------------
-------------
-###----##---
##-##--##----
##-##-##-----
-###-##-###--
----##-##-##-
---##--##-##-
--##----###--
-------------
-------------

GLYPH '&'
OFFSET 1
---------
---------
--###----
-##-##---
--###----
-####-##-
##--###--
##--###--
-####-##-
---------
---------

GLYPH 39
OFFSET 1
---
##-
##-
-#-
---
---
---
---
---
---
---

GLYPH '('
OFFSET 1
-----
--##-
-##--
-#---
##---
##---
##---
-#---
-##--
--##-
-----

GLYPH ')'
OFFSET 1
-----
##---
-##--
--#--
--##-
--##-
--##-
--#--
-##--
##---
-----

GLYPH '*'
OFFSET 1
------
-#-#--
--#---
#####-
--#---
-#-#--
------
------
------
------
------

GLYPH '+'
OFFSET 1
------
------
------
--#---
--#---
#####-
--#---
--#---
------
------
------

GLYPH ','
OFFSET 1
---
---
---
---
---
---
---
---
##-
-#-
#--

GLYPH '-'
OFFSET 1
-----
-----
-----
-----
-----
####-
-----
-----
-----
-----
-----

GLYPH '.'
OFFSET 1
---
---
---
---
---
---
---
---
##-
---
---

GLYPH '/'
OFFSET 1
------
------
---##-
---##-
--##--
-##---
-##---
##----
##----
------
------

GLYPH '0'
OFFSET 1
------
------
-###--
##-##-
##-##-
##-##-
##-##-
##-##-
-###--
------
------

GLYPH '1'
OFFSET 1
------
------
--##--
-###--
--##--
--##--
--##--
--##--
--##--
------
------

GLYPH '2'
OFFSET 1
------
------
-###--
##-##-
---##-
--##--
-##---
##----
#####-
------
------

GLYPH '3'
OFFSET 1
------
------
-###--
##-##-
---##-
--##--
---##-
##-##-
-###--
------
------

GLYPH '4'
OFFSET 1
------
------
---##-
--###-
-####-
##-##-
#####-
---##-
---##-
------
------

GLYPH '5'
OFFSET 1
------
------
#####-
##----
##----
####--
---##-
---##-
####--
------
------

GLYPH '6'
OFFSET 1
------
------
--##--
-##---
##----
####--
##-##-
##-##-
-###--
------
------

GLYPH '7'
OFFSET 1
------
------
#####-
---##-
--##--
--##--
-##---
-##---
-##---
------
------

GLYPH '8'
OFFSET 1
------
------
-###--
##-##-
##-##-
-###--
##-##-
##-##-
-###--
------
------

GLYPH '9'
OFFSET 1
------
------
-###--
##-##-
##-##-
-####-
---##-
--##--
-##---
------
------

GLYPH ':'
OFFSET 1
---
---
---
---
##-
---
---
---
##-
---
---

GLYPH ';'
OFFSET 1
---
---
---
---
##-
---
---
---
##-
-#-
#--

GLYPH '<'
OFFSET 1
------
------
------
----#-
--##--
###---
--##--
----#-
------
------
------

GLYPH '='
OFFSET 1
------
------
------
------
#####-
------
#####-
------
------
------
------

GLYPH '>'
OFFSET 1
------
------
------
#-----
-##---
---##-
-##---
#-----
------
------
------

GLYPH '?'
OFFSET 1
------
------
-####-
----##
---##-
--##--
--##--
------
--##--
------
------

GLYPH '@'
OFFSET 1
----------
----------
----------
--#####---
-##---##--
##--##-##-
##-#-#-##-
##--#-##--
-##-------
--####----
----------

GLYPH 'A'
OFFSET 1
-------
-------
-####--
##--##-
##--##-
######-
##--##-
##--##-
##--##-
-------
-------

GLYPH 'B'
OFFSET 1
-------
-------
#####--
##--##-
##--##-
#####--
##--##-
##--##-
#####--
-------
-------

GLYPH 'C'
OFFSET 1
------
------
--###-
-##---
##----
##----
##----
-##---
--###-
------
------

GLYPH 'D'
OFFSET 1
-------
-------
####---
##-##--
##--##-
##--##-
##--##-
##-##--
####---
-------
-------

GLYPH 'E'
OFFSET 1
-----
-----
####-
##---
##---
####-
##---
##---
####-
-----
-----

GLYPH 'F'
OFFSET 1
-----
-----
####-
##---
##---
####-
##---
##---
##---
-----
-----

GLYPH 'G'
OFFSET 1
--------
--------
--####--
-##-----
##------
##--###-
##---##-
-##--##-
--####--
--------
--------

GLYPH 'H'
OFFSET 1
--------
--------
##---##-
##---##-
##---##-
#######-
##---##-
##---##-
##---##-
--------
--------

GLYPH 'I'
OFFSET 1
---
---
##-
##-
##-
##-
##-
##-
##-
---
---

GLYPH 'J'
OFFSET 1
-----
-----
--##-
--##-
--##-
--##-
--##-
--##-
###--
-----
-----

GLYPH 'K'
OFFSET 1
-------
-------
##--##-
##-##--
####---
###----
####---
##-##--
##--##-
-------
-------

GLYPH 'L'
OFFSET 1
------
------
##----
##----
##----
##----
##----
##----
#####-
------
------

GLYPH 'M'
OFFSET 1
----------
----------
###---###-
###---###-
#-##-#-##-
#-##-#-##-
#--##--##-
#--##--##-
#--##--##-
----------
----------

GLYPH 'N'
OFFSET 1
-------
-------
##---#-
###--#-
####-#-
#-####-
#--###-
#---##-
#----#-
-------
-------

GLYPH 'O'
OFFSET 1
--------
--------
--###---
-##-##--
##---##-
##---##-
##---##-
-##-##--
--###---
--------
--------

GLYPH 'P'
OFFSET 1
-------
-------
#####--
##--##-
##--##-
#####--
##-----
##-----
##-----
-------
-------

GLYPH 'Q'
OFFSET 1
--------
--------
--###---
-##-##--
##---##-
##---##-
##---##-
-##-##--
--###---
----###-
--------

GLYPH 'R'
OFFSET 1
--------
--------
#####---
##--##--
##--##--
#####---
##-##---
##--##--
##--###-
--------
--------

GLYPH 'S'
OFFSET 1
------
------
-####-
##----
###---
-###--
--###-
---##-
####--
------
------

GLYPH 'T'
OFFSET 1
-------
-------
######-
--##---
--##---
--##---
--##---
--##---
--##---
-------
-------

GLYPH 'U'
OFFSET 1
-------
-------
##---#-
##---#-
##---#-
##---#-
##---#-
###-##-
-####--
-------
-------

GLYPH 'V'
OFFSET 1
--------
--------
##---##-
##---##-
-##--#--
-##-##--
-##-#---
--###---
--###---
--------
--------

GLYPH 'W'
OFFSET 1
-----------
-----------
##--##--##-
##--##--#--
-##-##-##--
-##-##-##--
-###-###---
--##--##---
--##--##---
-----------
-----------

GLYPH 'X'
OFFSET 1
-------
-------
##---#-
###-##-
-####--
--##---
-####--
##-###-
#---##-
-------
-------

GLYPH 'Y'
OFFSET 1
-------
-------
##--##-
##--##-
######-
-####--
--##---
--##---
--##---
-------
-------

GLYPH 'Z'
OFFSET 1
-------
-------
######-
---###-
--###--
-###---
###----
##-----
######-
-------
-------

GLYPH '['
OFFSET 1
----
###-
##--
##--
##--
##--
##--
##--
##--
###-
----

GLYPH 92
OFFSET 1
------
------
##----
##----
-##---
--##--
--##--
---##-
---##-
------
------

GLYPH ']'
OFFSET 1
----
###-
-##-
-##-
-##-
-##-
-##-
-##-
-##-
###-
----

GLYPH '^'
OFFSET 1
------
------
--#---
--#---
-#-#--
-#-#--
#---#-
------
------
------
------

GLYPH '_'
OFFSET 1
-----
-----
-----
-----
-----
-----
-----
-----
-----
#####
-----

GLYPH '`'
OFFSET 1
----
----
##--
--#-
----
----
----
----
----
----
----

GLYPH 'a'
OFFSET 1
------
------
------
------
-####-
##-##-
##-##-
##-##-
-####-
------
------

GLYPH 'b'
OFFSET 1
------
------
##----
##----
####--
##-##-
##-##-
##-##-
####--
------
------

GLYPH 'c'
OFFSET 1
-----
-----
-----
-----
-###-
##---
##---
##---
-###-
-----
-----

GLYPH 'd'
OFFSET 1
------
------
---##-
---##-
-####-
##-##-
##-##-
##-##-
-####-
------
------

GLYPH 'e'
OFFSET 1
------
------
------
------
-###--
##-##-
#####-
##----
-####-
------
------

GLYPH 'f'
OFFSET 1
-----
-----
--###
-##--
####-
-##--
-##--
-##--
-##--
-----
-----

GLYPH 'g'
OFFSET 1
------
------
------
------
-####-
##-##-
##-##-
##-##-
-####-
---##-
-###--

GLYPH 'h'
OFFSET 1
------
------
##----
##----
####--
##-##-
##-##-
##-##-
##-##-
------
------

GLYPH 'i'
OFFSET 1
---
---
##-
---
##-
##-
##-
##-
##-
---
---

GLYPH 'j'
OFFSET 1
----
----
-##-
----
-##-
-##-
-##-
-##-
-##-
-##-
##--

GLYPH 'k'
OFFSET 1
------
------
##----
##----
##-##-
####--
####--
##-##-
##--##
------
------

GLYPH 'l'
OFFSET 1
---
---
##-
##-
##-
##-
##-
##-
##-
---
---

GLYPH 'm'
OFFSET 1
---------
---------
---------
---------
###-###--
##-##-##-
##-##-##-
##-##-##-
##-##-##-
---------
---------

GLYPH 'n'
OFFSET 1
------
------
------
------
####--
##-##-
##-##-
##-##-
##-##-
------
------

GLYPH 'o'
OFFSET 1
------
------
------
------
-###--
##-##-
##-##-
##-##-
-###--
------
------

GLYPH 'p'
OFFSET 1
------
------
------
------
####--
##-##-
##-##-
##-##-
####--
##----
##----

GLYPH 'q'
OFFSET 1
------
------
------
------
-####-
##-##-
##-##-
##-##-
-####-
---##-
---##-

GLYPH 'r'
OFFSET 1
-----
-----
-----
-----
##-#-
####-
##---
##---
##---
-----
-----

GLYPH 's'
OFFSET 1
-----
-----
-----
-----
-###-
##---
####-
--##-
###--
-----
-----

GLYPH 't'
OFFSET 1
------
------
------
-##---
#####-
-##---
-##---
-##---
--###-
------
------

GLYPH 'u'
OFFSET 1
------
------
------
------
##-##-
##-##-
##-##-
##-##-
-####-
------
------

GLYPH 'v'
OFFSET 1
------
------
------
------
##-##-
##-##-
##-##-
-###--
-###--
------
------

GLYPH 'w'
OFFSET 1
---------
---------
---------
---------
##-##-##-
##-##-##-
##-##-##-
########-
-##--##--
---------
---------

GLYPH 'x'
OFFSET 1
------
------
------
------
##-##-
##-##-
-###--
##-##-
##-##-
------
------

GLYPH 'y'
OFFSET 1
------
------
------
------
##-##-
##-##-
##-##-
-###--
--##--
-##---
##----

GLYPH 'z'
OFFSET 1
-----
-----
-----
-----
####-
--##-
-##--
##---
####-
-----
-----

GLYPH '{'
OFFSET 1
-----
--##-
-##--
-##--
-##--
##---
-##--
-##--
-##--
--##-
-----

GLYPH '|'
OFFSET 1
---
---
##-
##-
##-
##-
##-
##-
##-
##-
##-

GLYPH '}'
OFFSET 1
-----
##---
-##--
-##--
-##--
--##-
-##--
-##--
-##--
##---
-----

GLYPH '~'
OFFSET 1
-------
-------
-------
-------
-##--#-
#-##-#-
#--##--
-------
-------
-------
-------

GLYPH 128
OFFSET 1
------
------
------
------
------
------
------
------
------
------
------

GLYPH 130
OFFSET 1
---
---
---
---
---
---
---
---
##-
-#-
#--

GLYPH 131
OFFSET 1
---------
---------
-----###-
----##---
--#####--
---##----
---##----
--##-----
--##-----
###------
---------

GLYPH 132
OFFSET 1
-----
-----
-----
-----
-----
-----
-----
-----
####-
-#-#-
#-#--

GLYPH 133
OFFSET 1
------
------
------
------
------
------
------
------
#-#-#-
------
------

GLYPH 134
OFFSET 1
-----
-----
-##--
-##--
####-
-##--
-##--
-##--
-##--
-##--
-##--

GLYPH 135
OFFSET 1
-----
-----
-##--
-##--
####-
-##--
-##--
-##--
####-
-##--
-##--

GLYPH 136
OFFSET 1
----
----
-#--
#-#-
----
----
----
----
----
----
----

GLYPH 137
OFFSET 1
-----------------
-----------------
-###----#--------
##-##--##--------
##-##-##---------
-###-##-###-###--
----##-##-###-##-
---##--##-###-##-
--##----###-###--
-----------------
-----------------

GLYPH 138
OFFSET 1
-#-#--
--#---
------
-####-
###---
-###--
--###-
---##-
####--
------
------

GLYPH 139
OFFSET 1
-----
-----
-----
--##-
-##--
##---
-##--
--##-
-----
-----
-----

GLYPH 140
OFFSET 1
----------
----------
--#######-
-##--##---
##---##---
##---####-
##---##---
-##--##---
--#######-
----------
----------

GLYPH 141
OFFSET 1
----------
----#-----
---#-#----
--#---#---
-#-----#--
#-------#-
-#-----#--
--#---#---
---#-#----
----#-----
----------

GLYPH 142
OFFSET 1
---###----
--#####---
--#####---
-#-###-#--
#########-
#########-
#########-
-##-#-##--
---###----
--#####---
----------

GLYPH 143
----------
-###-###--
#--###--#-
#---#---#-
#-------#-
#-------#-
-#-----#--
--#---#---
---#-#----
----#-----
----------

GLYPH 144
----#-----
---###----
--#####---
-#######--
#########-
#########-
#########-
-##-#-##--
---###----
--#####---
----------

GLYPH 145
OFFSET 1
---
-#-
#--
##-
---
---
---
---
---
---
---

GLYPH 146
OFFSET 1
---
##-
-#-
#--
---
---
---
---
---
---
---

GLYPH 147
OFFSET 1
-----
-#-#-
#-#--
####-
-----
-----
-----
-----
-----
-----
-----

GLYPH 148
OFFSET 1
-----
####-
-#-#-
#-#--
-----
-----
-----
-----
-----
-----
-----

GLYPH 149
OFFSET 1
----
----
----
----
###-
###-
###-
----
----
----
----

GLYPH 150
OFFSET 1
----
----
----
----
----
####
----
----
----
----
----

GLYPH 151
OFFSET 1
------
------
------
------
------
######
------
------
------
------
------

GLYPH 152
OFFSET 1
-------
-------
-------
-##--#-
#-##-#-
#--##--
-------
-------
-------
-------
-------

GLYPH 153
OFFSET 1
----------
----------
###-#---#-
-#--##-##-
-#--#-#-#-
----------
----------
----------
----------
----------
----------

GLYPH 154
OFFSET 1
-----
-#-#-
--#--
-----
-###-
##---
####-
--##-
###--
-----
-----

GLYPH 155
OFFSET 1
-----
-----
-----
##---
-##--
--##-
-##--
##---
-----
-----
-----

GLYPH 156
OFFSET 1
----------
----------
----------
----------
-###-###--
##-###-##-
##-######-
##-###----
-###-####-
----------
----------

GLYPH 157
----------
----------
-------##-
------##--
-----##---
----##----
---##-----
####------
###-------
###-------
----------

GLYPH 158
OFFSET 1
--------
--------
--###---
-##-##--
-##-##--
-##-##--
-##-##--
--###---
###-##--
##---##-
--------

GLYPH 159
OFFSET 1
-------
-#--#--
-------
##--##-
##--##-
-####--
--##---
--##---
--##---
-------
-------

GLYPH 160
OFFSET 1
--
--
--
--
--
--
--
--
--
--
--

GLYPH 161
OFFSET 1
---
---
---
---
##-
---
##-
##-
##-
##-
##-

GLYPH 162
OFFSET 1
------
------
------
---#--
-####-
##-#--
##-#--
##-#--
-####-
---#--
------

GLYPH 163
OFFSET 1
-------
-------
--###--
-##----
-##----
#####--
-##----
-##----
######-
-------
-------

GLYPH 164
OFFSET 1
--------
--------
#-###-#-
-#####--
##---##-
##---##-
##---##-
-#####--
#-###-#-
--------
--------

GLYPH 165
OFFSET 1
-------
-------
##---#-
-##-#--
######-
--##---
######-
--##---
--##---
-------
-------

GLYPH 166
OFFSET 1
---
---
##-
##-
##-
##-
---
##-
##-
##-
##-

GLYPH 167
OFFSET 1
------
-###--
##-##-
-##---
####--
##-##-
-####-
--##--
##-##-
-###--
------

GLYPH 168
OFFSET 1
----
----
----
#-#-
----
----
----
----
----
----
----

GLYPH 169
OFFSET 1
--------
--------
--------
--###---
-#---#--
#-###-#-
#-#---#-
#-###-#-
-#---#--
--###---
--------

GLYPH 170
OFFSET 1
------
------
-####-
##-##-
-####-
------
------
------
------
------
------

GLYPH 171
OFFSET 1
--------
--------
--------
--------
--##-##-
-##-##--
##-##---
-##-##--
--##-##-
--------
--------

GLYPH 172
OFFSET 1
------
------
------
------
------
#####-
----#-
----#-
------
------
------

GLYPH 173
OFFSET 1
-----
-----
-----
-----
-----
####-
-----
-----
-----
-----
-----

GLYPH 174
OFFSET 1
--------
--------
--------
--###---
-#---#--
#-###-#-
#-##--#-
#-#-#-#-
-#---#--
--###---
--------

GLYPH 175
OFFSET 1
------
#####-
------
------
------
------
------
------
------
------
------

GLYPH 176
OFFSET 1
-----
-##--
#--#-
#--#-
-##--
-----
-----
-----
-----
-----
-----

GLYPH 177
OFFSET 1
------
------
--#---
--#---
#####-
--#---
--#---
#####-
------
------
------

GLYPH 178
OFFSET 1
----
----
###-
--#-
-#--
###-
----
----
----
----
----

GLYPH 179
OFFSET 1
----
----
###-
-#--
--#-
###-
----
----
----
----
----

GLYPH 180
OFFSET 1
----
----
-##-
#---
----
----
----
----
----
----
----

GLYPH 181
OFFSET 1
------
------
------
------
##-##-
##-##-
##-##-
##-##-
#####-
##----
##----

GLYPH 182
OFFSET 1
-------
-------
-#####-
###-##-
###-##-
-##-##-
--#-##-
--#-##-
--#-##-
-------
-------

GLYPH 183
OFFSET 1
--
--
--
--
--
#-
--
--
--
--
--

GLYPH 184
OFFSET 1
----
----
----
----
----
----
----
----
-#--
--#-
##--

GLYPH 185
OFFSET 1
--
--
#-
#-
#-
--
--
--
--
--
--

GLYPH 186
OFFSET 1
------
------
-###--
##-##-
-###--
------
#####-
------
------
------
------

GLYPH 187
OFFSET 1
--------
--------
--------
--------
##-##---
-##-##--
--##-##-
-##-##--
##-##---
--------
--------

GLYPH 188
OFFSET 1
---------
##-------
##---##--
##--##---
##-##----
--##--#--
-##--##--
##--####-
-----##--
---------
---------

GLYPH 189
OFFSET 1
---------
##-------
##---##--
##--##---
##-##----
--##-###-
-##---##-
##---##--
-----###-
---------
---------

GLYPH 190
OFFSET 1
---------
###------
-##--##--
-##-##---
#####----
--##--#--
-##--##--
##--####-
-----##--
---------
---------

GLYPH 191
OFFSET 1
------
------
--##--
------
--##--
--##--
-##---
##----
-####-
------
------

GLYPH 192
OFFSET 1
--#----
---#---
-------
-####--
##--##-
##--##-
######-
##--##-
##--##-
-------
-------

GLYPH 193
OFFSET 1
---#---
--#----
-------
-####--
##--##-
##--##-
######-
##--##-
##--##-
-------
-------

GLYPH 194
OFFSET 1
---#---
--#-#--
-------
-####--
##--##-
##--##-
######-
##--##-
##--##-
-------
-------

GLYPH 195
OFFSET 1
-##-#--
#-##---
-------
-####--
##--##-
##--##-
######-
##--##-
##--##-
-------
-------

GLYPH 196
OFFSET 1
-------
--#-#--
-------
-####--
##--##-
##--##-
######-
##--##-
##--##-
-------
-------

GLYPH 197
OFFSET 1
--##---
-#--#--
--##---
-####--
##--##-
##--##-
######-
##--##-
##--##-
-------
-------

GLYPH 198
OFFSET 1
---------
---------
-#######-
##--##---
##--##---
########-
##--##---
##--##---
##--####-
---------
---------

GLYPH 199
OFFSET 1
------
------
--###-
-##---
##----
##----
##----
-##---
--###-
---#--
--#---

GLYPH 200
OFFSET 1
-#---
--#--
-----
####-
##---
####-
##---
##---
####-
-----
-----

GLYPH 201
OFFSET 1
--#--
-#---
-----
####-
##---
####-
##---
##---
####-
-----
-----

GLYPH 202
OFFSET 1
--#--
-#-#-
-----
####-
##---
####-
##---
##---
####-
-----
-----

GLYPH 203
OFFSET 1
-----
-#-#-
-----
####-
##---
####-
##---
##---
####-
-----
-----

GLYPH 204
OFFSET 1
#--
-#-
---
##-
##-
##-
##-
##-
##-
---
---

GLYPH 205
OFFSET 1
-#-
#--
---
##-
##-
##-
##-
##-
##-
---
---

GLYPH 206
OFFSET 1
-#-
#-#
---
##-
##-
##-
##-
##-
##-
---
---

GLYPH 207
OFFSET 1
---
#-#
---
##-
##-
##-
##-
##-
##-
---
---

GLYPH 208
OFFSET 1
--------
--------
-####---
-##-##--
-##--##-
####-##-
-##--##-
-##-##--
-####---
--------
--------

GLYPH 209
OFFSET 1
-##-#--
#-##---
-------
##---#-
###--#-
####-#-
#-####-
#--###-
#---##-
-------
-------

GLYPH 210
OFFSET 1
---#----
----#---
--------
--###---
-##-##--
##---##-
##---##-
-##-##--
--###---
--------
--------

GLYPH 211
OFFSET 1
----#---
---#----
--------
--###---
-##-##--
##---##-
##---##-
-##-##--
--###---
--------
--------

GLYPH 212
OFFSET 1
---#----
--#-#---
--------
--###---
-##-##--
##---##-
##---##-
-##-##--
--###---
--------
--------

GLYPH 213
OFFSET 1
--##-#--
-#-##---
--------
--###---
-##-##--
##---##-
##---##-
-##-##--
--###---
--------
--------

GLYPH 214
OFFSET 1
--------
--#-#---
--------
--###---
-##-##--
##---##-
##---##-
-##-##--
--###---
--------
--------

GLYPH 215
OFFSET 1
------
------
------
------
##-##-
-###--
-###--
##-##-
------
------
------

GLYPH 216
OFFSET 1
--------
--------
--###-#-
-##-##--
##--###-
##-#-##-
###--##-
-##-##--
#-###---
--------
--------

GLYPH 217
OFFSET 1
---#---
----#--
-------
##---#-
##---#-
##---#-
##---#-
###-##-
-####--
-------
-------

GLYPH 218
OFFSET 1
----#--
---#---
-------
##---#-
##---#-
##---#-
##---#-
###-##-
-####--
-------
-------

GLYPH 219
OFFSET 1
---#---
--#-#--
-------
##---#-
##---#-
##---#-
##---#-
###-##-
-#####-
-------
-------

GLYPH 220
OFFSET 1
-------
--#-#--
-------
##---#-
##---#-
##---#-
##---#-
###-##-
-####--
-------
-------

GLYPH 221
OFFSET 1
---#---
--#----
-------
##--##-
##--##-
-####--
--##---
--##---
--##---
-------
-------

GLYPH 222
OFFSET 1
-------
-------
##-----
#####--
##--##-
##--##-
##--##-
#####--
##-----
-------
-------

GLYPH 223
OFFSET 1
--------
--------
-####---
##--##--
##--#---
##-###--
##--###-
##---##-
##-###--
--------
--------

GLYPH 224
OFFSET 1
------
--#---
---#--
------
-####-
##-##-
##-##-
##-##-
-####-
------
------

GLYPH 225
OFFSET 1
------
---#--
--#---
------
-####-
##-##-
##-##-
##-##-
-####-
------
------

GLYPH 226
OFFSET 1
------
---#--
--#-#-
------
-####-
##-##-
##-##-
##-##-
-####-
------
------

GLYPH 227
OFFSET 1
------
-##-#-
#-##--
------
-####-
##-##-
##-##-
##-##-
-####-
------
------

GLYPH 228
OFFSET 1
------
------
--#-#-
------
-####-
##-##-
##-##-
##-##-
-####-
------
------

GLYPH 229
OFFSET 1
--##--
-#--#-
--##--
------
-####-
##-##-
##-##-
##-##-
-####-
------
------

GLYPH 230
OFFSET 1
---------
---------
---------
---------
-###-##--
---##-##-
-#######-
##-##----
-#######-
---------
---------

GLYPH 231
OFFSET 1
-----
-----
-----
-----
-###-
##---
##---
##---
-###-
--#--
-#---

GLYPH 232
OFFSET 1
------
--#---
---#--
------
-###--
##-##-
#####-
##----
-####-
------
------

GLYPH 233
OFFSET 1
------
---#--
--#---
------
-###--
##-##-
#####-
##----
-####-
------
------

GLYPH 234
OFFSET 1
------
--#---
-#-#--
------
-###--
##-##-
#####-
##----
-####-
------
------

GLYPH 235
OFFSET 1
------
------
-#-#--
------
-###--
##-##-
#####-
##----
-####-
------
------

GLYPH 236
OFFSET 1
---
#--
-#-
---
##-
##-
##-
##-
##-
---
---

GLYPH 237
OFFSET 1
---
-#-
#--
---
##-
##-
##-
##-
##-
---
---

GLYPH 238
OFFSET 1
---
-#-
#-#
---
##-
##-
##-
##-
##-
---
---

GLYPH 239
OFFSET 1
---
---
#-#
---
##-
##-
##-
##-
##-
---
---

GLYPH 240
OFFSET 1
------
------
###---
###---
--##--
-###--
##-##-
##-##-
-###--
------
------

GLYPH 241
OFFSET 1
------
-##-#-
#-##--
------
####--
##-##-
##-##-
##-##-
##-##-
------
------

GLYPH 242
OFFSET 1
------
--#---
---#--
------
-###--
##-##-
##-##-
##-##-
-###--
------
------

GLYPH 243
OFFSET 1
------
---#--
--#---
------
-###--
##-##-
##-##-
##-##-
-###--
------
------

GLYPH 244
OFFSET 1
------
--#---
-#-#--
------
-###--
##-##-
##-##-
##-##-
-###--
------
------

GLYPH 245
OFFSET 1
------
-##-#-
#-##--
------
-###--
##-##-
##-##-
##-##-
-###--
------
------

GLYPH 246
OFFSET 1
------
------
-#-#--
------
-###--
##-##-
##-##-
##-##-
-###--
------
------

GLYPH 247
OFFSET 1
-------
-------
-------
--##---
-------
######-
-------
--##---
-------
-------
-------

GLYPH 248
OFFSET 1
--------
--------
--------
--------
--###-#-
-##-##--
-#####--
-##-##--
#-###---
--------
--------

GLYPH 249
OFFSET 1
------
--#---
---#--
------
##-##-
##-##-
##-##-
##-##-
-####-
------
------

GLYPH 250
OFFSET 1
------
---#--
--#---
------
##-##-
##-##-
##-##-
##-##-
-####-
------
------

GLYPH 251
OFFSET 1
------
--#---
-#-#--
------
##-##-
##-##-
##-##-
##-##-
-####-
------
------

GLYPH 252
OFFSET 1
------
------
-#-#--
------
##-##-
##-##-
##-##-
##-##-
-####-
------
------

GLYPH 253
OFFSET 1
------
---#--
--#---
------
##-##-
##-##-
##-##-
-###--
--##--
-##---
##----

GLYPH 254
OFFSET 1
------
------
------
##----
####--
##-##-
##-##-
##-##-
####--
##----
##----

GLYPH 255
OFFSET 1
------
------
-#-#--
------
##-##-
##-##-
##-##-
-###--
--##--
-##---
##----

