fontType 36864
maxWidth 12
kernMax 0
nDescent 0
fRectWidth 12
fRectHeight 11
ascent 0
descent 11
leading 0

GLYPH 0
------------
------------
--########--
--#------#--
--#------#--
--#------#--
--#------#--
--#------#--
--#------#--
--########--
------------

GLYPH 1
------------
----------##
--######-###
--#-----###-
--#-##-###--
--#-#####---
--#--###-#--
--#---#--#--
--#------#--
--########--
------------

GLYPH 2
------#-
-----##-
----###-
---####-
--#####-
-######-
--#####-
---####-
----###-
-----##-
------#-

GLYPH 3
-#------
-##-----
-###----
-####---
-#####--
-######-
-#####--
-####---
-###----
-##-----
-#------

GLYPH 4
####----####
##---##---##
##---##---##
#----------#
#---###----#
#----##----#
#----##----#
##--####--##
##--------##
####----####
############
