/* XPM */
static const char * bitmapfamily_xpm[] = {
"21 21 8 1",
" 	c None",
".	c #000000",
"+	c #00FFFF",
"@	c #FFFFFF",
"#	c #007B00",
"$	c #D6D6D6",
"%	c #00FF00",
"&	c #0000FF",
"                     ",
"                     ",
" .............       ",
" .++++@++++++.       ",
" .++@++.++@++.       ",
" .++++...++@+.       ",
" .####.$.####.       ",
" .%%.............    ",
" .%%.+++@+++++++.    ",
" ....+@+..@+++++.    ",
"    .++.$$.+++@+.    ",
"    .##............. ",
"    .%%.+++@+.+++@+. ",
"    .%%.+@++.$.++++. ",
"    ....+++.$$$.+@+. ",
"       .###.$&$.###. ",
"       .%%%.....%%%. ",
"       .%%%%%%%%%%%. ",
"       ............. ",
"                     ",
"                     "};
