/* XPM */
static const char *menu_align_bottom_xpm[] = {
/* columns rows colors chars-per-pixel */
"16 16 30 1",
"  c black",
". c #314E6C",
"X c #4E6239",
"o c #565248",
"O c #7B96B4",
"+ c #7D98B5",
"@ c #7F9AB7",
"# c #807D74",
"$ c #92AD74",
"% c #94AF76",
"& c #95B079",
"* c #819CB9",
"= c #839EBA",
"- c #9BB580",
"; c #9DB683",
": c #9EB784",
"> c #9FB885",
", c #A0B887",
"< c #A1B988",
"1 c #A2BA89",
"2 c #A5B6CA",
"3 c #A5B7CA",
"4 c #A7B8CB",
"5 c #B7C9A4",
"6 c #B9CBA6",
"7 c #BACCA7",
"8 c #BBCCA9",
"9 c #C4CFDC",
"0 c #D0DCC3",
"q c None",
/* pixels */
"qqqqqqqqqqqqqqqq",
"qqqXXXXXqqqqqqqq",
"qqqX055Xqqqqqqqq",
"qqqX5$$Xqqqqqqqq",
"qqqX5$$Xq.....qq",
"qqqX5$%Xq.922.qq",
"qqqX5%&Xq.2O+.qq",
"qqqX5-;Xq.2O+.qq",
"qqqX7;>Xq.4+*.qq",
"qqqX7><Xq.4+*.qq",
"qqqX8<1Xq.4**.qq",
"qqqXXXXXq.....qq",
"qqqqqqqqqqqqqqqq",
"q#oooooooooooo q",
"qo             q",
"qqqqqqqqqqqqqqqq"
};
