/* XPM */
static const char *menu_align_right_xpm[] = {
/* columns rows colors chars-per-pixel */
"16 16 31 1",
"  c black",
". c #314E6C",
"X c #4E6239",
"o c #565248",
"O c #7B96B4",
"+ c #7D98B5",
"@ c #7F9AB7",
"# c #807D74",
"$ c #92AD74",
"% c #94AF76",
"& c #95B079",
"* c #99B37E",
"= c #819CB9",
"- c #839EBA",
"; c #9BB580",
": c #9DB683",
"> c #9EB784",
", c #9FB885",
"< c #A0B887",
"1 c #A1B988",
"2 c #A2BA89",
"3 c #A5B6CA",
"4 c #A5B7CA",
"5 c #A7B8CB",
"6 c #B7C9A4",
"7 c #B9CBA6",
"8 c #BACCA7",
"9 c #BBCCA9",
"0 c #C4CFDC",
"q c #D0DCC3",
"w c None",
/* pixels */
"wwwwwwwwwwwwwwww",
"wwwwwwwwwwwww#ow",
"XXXXXXXXXXXXwo w",
"Xq666666789Xwo w",
"X6$$$%*;:,1Xwo w",
"X6$$%&;:>11Xwo w",
"XXXXXXXXXXXXwo w",
"wwwwwwwwwwwwwo w",
"wwwww.......wo w",
"wwwww.04445.wo w",
"wwwww.4O+==.wo w",
"wwwww.4++==.wo w",
"wwwww.......wo w",
"wwwwwwwwwwwwwo w",
"wwwwwwwwwwwww  w",
"wwwwwwwwwwwwwwww"
};
