/* XPM */
static const char *menu_center_vertical_xpm[] = {
/* columns rows colors chars-per-pixel */
"16 16 29 1",
"  c black",
". c #314E6C",
"X c #4E6239",
"o c #565248",
"O c #7B96B4",
"+ c #7D98B5",
"@ c #7F9AB7",
"# c #807D74",
"$ c #92AD74",
"% c #94AF76",
"& c #819CB9",
"* c #839EBA",
"= c #9BB580",
"- c #9DB683",
"; c #9EB784",
": c #9FB885",
"> c #A0B887",
", c #A1B988",
"< c #A2BA89",
"1 c #A5B6CA",
"2 c #A5B7CA",
"3 c #A7B8CB",
"4 c #B7C9A4",
"5 c #B9CBA6",
"6 c #BACCA7",
"7 c #BBCCA9",
"8 c #C4CFDC",
"9 c #D0DCC3",
"0 c None",
/* pixels */
"0000000000000000",
"0000000000000000",
"00XXXXX000000000",
"00X944X000000000",
"00X4$$X0.....000",
"00X4$$X0.811.000",
"00X4$%X0.1O+.000",
"0#oooooooooooo 0",
"0o             0",
"00X4=-X0.1&&.000",
"00X6-:X0.3&&.000",
"00X6:>X0.....000",
"00X7,,X000000000",
"00XXXXX000000000",
"0000000000000000",
"0000000000000000"
};
