/* XPM */
static const char * popup_trigger_canvas_disabled_xpm[] = {
"15 13 2 1",
" 	c None",
".	c #757575",
"               ",
"               ",
"               ",
"               ",
"   ........    ",
"    ......     ",
"     ....      ",
"      ..       ",
"               ",
"               ",
"               ",
"               ",
"               "};
